TP3/EJ2/SAR/simulation/qsim/SAR.msim.vcd
$comment
	File created using the following command:
		vcd file SAR.msim.vcd -direction
$end
$date
	Sat May 25 19:22:53 2019
$end
$version
	ModelSim Version 10.5b
$end
$timescale
	1ps
$end

$scope module main_vlg_vec_tst $end
$var reg 1 ! clk $end
$var reg 1 " cmp $end
$var wire 1 # a [7] $end
$var wire 1 $ a [6] $end
$var wire 1 % a [5] $end
$var wire 1 & a [4] $end
$var wire 1 ' a [3] $end
$var wire 1 ( a [2] $end
$var wire 1 ) a [1] $end
$var wire 1 * a [0] $end
$var wire 1 + b [7] $end
$var wire 1 , b [6] $end
$var wire 1 - b [5] $end
$var wire 1 . b [4] $end
$var wire 1 / b [3] $end
$var wire 1 0 b [2] $end
$var wire 1 1 b [1] $end
$var wire 1 2 b [0] $end
$var wire 1 3 eoc $end
$var wire 1 4 out [7] $end
$var wire 1 5 out [6] $end
$var wire 1 6 out [5] $end
$var wire 1 7 out [4] $end
$var wire 1 8 out [3] $end
$var wire 1 9 out [2] $end
$var wire 1 : out [1] $end
$var wire 1 ; out [0] $end

$scope module i1 $end
$var wire 1 < gnd $end
$var wire 1 = vcc $end
$var wire 1 > unknown $end
$var tri1 1 ? devclrn $end
$var tri1 1 @ devpor $end
$var tri1 1 A devoe $end
$var wire 1 B cmp~input_o $end
$var wire 1 C eoc~output_o $end
$var wire 1 D a[7]~output_o $end
$var wire 1 E a[6]~output_o $end
$var wire 1 F a[5]~output_o $end
$var wire 1 G a[4]~output_o $end
$var wire 1 H a[3]~output_o $end
$var wire 1 I a[2]~output_o $end
$var wire 1 J a[1]~output_o $end
$var wire 1 K a[0]~output_o $end
$var wire 1 L b[7]~output_o $end
$var wire 1 M b[6]~output_o $end
$var wire 1 N b[5]~output_o $end
$var wire 1 O b[4]~output_o $end
$var wire 1 P b[3]~output_o $end
$var wire 1 Q b[2]~output_o $end
$var wire 1 R b[1]~output_o $end
$var wire 1 S b[0]~output_o $end
$var wire 1 T out[7]~output_o $end
$var wire 1 U out[6]~output_o $end
$var wire 1 V out[5]~output_o $end
$var wire 1 W out[4]~output_o $end
$var wire 1 X out[3]~output_o $end
$var wire 1 Y out[2]~output_o $end
$var wire 1 Z out[1]~output_o $end
$var wire 1 [ out[0]~output_o $end
$var wire 1 \ clk~input_o $end
$var wire 1 ] clk~inputclkctrl_outclk $end
$var wire 1 ^ inst|step~0_combout $end
$var wire 1 _ inst|step~3_combout $end
$var wire 1 ` inst|step~1_combout $end
$var wire 1 a inst|step~2_combout $end
$var wire 1 b inst|Equal0~0_combout $end
$var wire 1 c inst|LessThan0~0_combout $end
$var wire 1 d inst|b~0_combout $end
$var wire 1 e inst|a~5_combout $end
$var wire 1 f inst|b~6_combout $end
$var wire 1 g inst|a~7_combout $end
$var wire 1 h inst|a~8_combout $end
$var wire 1 i inst|b~7_combout $end
$var wire 1 j inst|Add0~2_combout $end
$var wire 1 k inst|Add1~0_combout $end
$var wire 1 l inst|a~9_combout $end
$var wire 1 m inst|b~8_combout $end
$var wire 1 n inst|Add0~1_cout $end
$var wire 1 o inst|Add0~3 $end
$var wire 1 p inst|Add0~4_combout $end
$var wire 1 q inst|Add1~1 $end
$var wire 1 r inst|Add1~2_combout $end
$var wire 1 s inst|a~4_combout $end
$var wire 1 t inst|a~3_combout $end
$var wire 1 u inst|b~3_combout $end
$var wire 1 v inst|a~6_combout $end
$var wire 1 w inst|Add0~5 $end
$var wire 1 x inst|Add0~7 $end
$var wire 1 y inst|Add0~9 $end
$var wire 1 z inst|Add0~11 $end
$var wire 1 { inst|Add0~13 $end
$var wire 1 | inst|Add0~14_combout $end
$var wire 1 } inst|Add0~10_combout $end
$var wire 1 ~ inst|Add1~3 $end
$var wire 1 !! inst|Add1~5 $end
$var wire 1 "! inst|Add1~7 $end
$var wire 1 #! inst|Add1~9 $end
$var wire 1 $! inst|Add1~11 $end
$var wire 1 %! inst|Add1~12_combout $end
$var wire 1 &! inst|b~2_combout $end
$var wire 1 '! inst|Add0~12_combout $end
$var wire 1 (! inst|Add1~10_combout $end
$var wire 1 )! inst2|LessThan0~0_combout $end
$var wire 1 *! inst|a[7]~1_combout $end
$var wire 1 +! inst|a[7]~2_combout $end
$var wire 1 ,! inst|Add1~8_combout $end
$var wire 1 -! inst|b~4_combout $end
$var wire 1 .! inst|Add0~8_combout $end
$var wire 1 /! inst|Add1~6_combout $end
$var wire 1 0! inst|b~5_combout $end
$var wire 1 1! inst|Add0~6_combout $end
$var wire 1 2! inst|Add1~4_combout $end
$var wire 1 3! inst2|LessThan0~1_combout $end
$var wire 1 4! inst|b[7]~1_combout $end
$var wire 1 5! inst|Add0~15 $end
$var wire 1 6! inst|Add0~16_combout $end
$var wire 1 7! inst|Add1~13 $end
$var wire 1 8! inst|Add1~14_combout $end
$var wire 1 9! inst|a~0_combout $end
$var wire 1 :! inst|step [3] $end
$var wire 1 ;! inst|step [2] $end
$var wire 1 <! inst|step [1] $end
$var wire 1 =! inst|step [0] $end
$var wire 1 >! inst|a [7] $end
$var wire 1 ?! inst|a [6] $end
$var wire 1 @! inst|a [5] $end
$var wire 1 A! inst|a [4] $end
$var wire 1 B! inst|a [3] $end
$var wire 1 C! inst|a [2] $end
$var wire 1 D! inst|a [1] $end
$var wire 1 E! inst|a [0] $end
$var wire 1 F! inst|b [7] $end
$var wire 1 G! inst|b [6] $end
$var wire 1 H! inst|b [5] $end
$var wire 1 I! inst|b [4] $end
$var wire 1 J! inst|b [3] $end
$var wire 1 K! inst|b [2] $end
$var wire 1 L! inst|b [1] $end
$var wire 1 M! inst|b [0] $end
$upscope $end
$upscope $end
$enddefinitions $end
#0
$dumpvars
0!
0"
0*
0)
0(
0'
0&
0%
0$
0#
12
11
10
1/
1.
1-
1,
1+
03
1;
1:
19
18
17
16
15
04
0<
1=
x>
1?
1@
1A
0B
0C
0D
0E
0F
0G
0H
0I
0J
0K
1L
1M
1N
1O
1P
1Q
1R
1S
0T
1U
1V
1W
1X
1Y
1Z
1[
0\
0]
1^
0_
0`
0a
0b
1c
1d
1e
0f
1g
1h
0i
1j
1k
1l
0m
1n
0o
1p
0q
1r
1s
1t
0u
1v
1w
0x
1y
0z
1{
1|
1}
1~
0!!
1"!
0#!
1$!
1%!
0&!
1'!
1(!
1)!
1*!
0+!
1,!
0-!
1.!
1/!
00!
11!
12!
13!
14!
05!
06!
07!
08!
09!
0=!
0<!
0;!
0:!
0E!
0D!
0C!
0B!
0A!
0@!
0?!
0>!
0M!
0L!
0K!
0J!
0I!
0H!
0G!
0F!
$end
#5000
1!
1\
1]
1F!
1=!
0L
0|
0+
1a
0^
0%!
0U
05
1&!
0t
#10000
0!
0\
0]
#15000
1!
1\
1]
1G!
1<!
0=!
0M
0'!
0,
1^
0(!
0V
03!
0*!
0)!
06
1u
0s
04!
1+!
#20000
1"
0!
1B
0\
0]
#25000
1!
1\
1]
1=!
1A!
1B!
1E!
1D!
1C!
1I
1J
1K
1H
1G
1#!
0.!
0"!
01!
1q
0~
0j
1!!
0p
1&
1'
1*
1)
1(
0a
1_
0^
0,!
0/!
0k
0r
02!
0Y
0Z
0[
0X
0W
0q
1-!
0e
1m
0l
07
08
0;
0:
09
1(!
1,!
1k
10!
0v
1i
0h
0g
1f
1[
1W
1V
1~
13!
1*!
0-!
1e
0m
1l
16
17
1;
1r
0u
1s
1Z
0!!
14!
0+!
1:
12!
0i
1h
1Y
1"!
19
1/!
1g
0f
1X
1)!
18
0,!
00!
1v
0W
03!
1-!
0*!
0e
07
#30000
0!
0\
0]
#35000
1!
1\
1]
1I!
0<!
1;!
0=!
0O
0y
1.!
0.
1^
0}
0"!
0/!
0X
0)!
08
10!
0v
04!
1+!
#40000
0!
0\
0]
#45000
1!
1\
1]
1=!
0A!
0B!
1@!
1F
0H
0G
0#!
1y
0.!
1"!
11!
0$!
1z
1}
0&
0'
1%
1a
0^
1,!
1/!
0(!
0V
1X
1W
1$!
0z
0}
1!!
0{
1'!
0-!
1e
17
18
06
1(!
0/!
02!
1%!
00!
1v
1u
0s
1U
0Y
0X
1V
1{
0'!
15!
1|
0$!
13!
1*!
16
08
09
15
0%!
0,!
1/!
0(!
0u
1s
10!
0v
0g
1f
0&!
1t
0V
1X
0W
0U
05!
0|
1$!
16!
17!
14!
0+!
03!
0*!
1-!
0e
05
07
18
06
1(!
1&!
0t
00!
1v
1u
0s
1V
06!
07!
04!
1+!
1)!
16
0u
1s
#50000
0!
0\
0]
#55000
1!
1\
1]
1<!
0=!
1B!
0C!
0I
1H
0"!
01!
0!!
1p
1'
0(
1^
0/!
12!
1Y
0X
1"!
0~
0)!
14!
0+!
08
19
1,!
02!
1/!
0r
10!
0v
1g
0f
0Z
1X
0Y
1W
04!
1+!
13!
0-!
1*!
1e
1)!
17
09
18
0:
0,!
12!
0g
1f
00!
1v
1i
0h
1Y
0W
14!
0+!
03!
1-!
0*!
0e
07
19
1g
0f
#60000
0"
0!
0B
0\
0]
#65000
1!
1\
1]
1L!
1=!
0R
1o
1j
01
0a
1`
0_
0^
0p
1q
0k
0[
0)!
1m
0l
0;
04!
1+!
#70000
0!
0\
0]
#75000
1!
1\
1]
0<!
1:!
0;!
0=!
0E!
0D!
1C!
1I
0J
0K
0q
1~
0o
0j
1!!
0w
1p
0*
0)
1(
1^
1k
1r
02!
0Y
1Z
1[
0!!
1w
0p
0"!
1x
11!
1)!
0m
1l
1;
1:
09
12!
0k
0/!
0i
1h
0g
1f
0X
0[
1Y
1"!
0x
01!
0y
1.!
1!!
14!
0+!
0)!
1m
0l
19
0;
08
1/!
0r
1,!
02!
1g
0f
10!
0v
0Y
1W
0Z
1X
1y
0.!
0!!
1z
1}
0"!
04!
1+!
13!
0-!
1*!
1e
18
0:
17
09
0,!
12!
00!
1v
1i
0h
0g
1f
1Y
0W
0z
0}
1"!
0{
1'!
1#!
14!
0+!
03!
1-!
0*!
0e
07
19
1g
0f
1{
0'!
0#!
15!
1|
0$!
04!
1+!
05!
0|
1$!
16!
17!
06!
07!
#80000
0!
0\
0]
#85000
1!
1\
1]
1=!
0c
1b
0`
0^
1C
14!
0-!
0m
13
0&!
0v
0s
0i
0g
0d
#90000
0!
0\
0]
#95000
1!
1\
1]
0F!
0I!
0G!
0L!
0:!
0=!
0B!
0@!
0C!
0I
0F
0H
1R
1M
1O
1L
1|
1.!
1'!
1j
1c
11!
1}
1p
1+
1.
1,
11
0'
0%
0(
0b
1^
0/!
0(!
02!
0Y
0V
0X
0C
04!
1-!
1m
03
08
06
09
1%!
1/!
1(!
1k
10!
1&!
1u
1i
1f
1d
12!
1,!
1r
1Z
1W
1Y
1[
1V
1X
1U
13!
1*!
1)!
0m
1l
0-!
1e
15
18
16
1;
19
17
1:
0&!
1t
00!
1v
0u
1s
1g
0f
0i
1h
14!
0+!
#100000
0!
0\
0]
#105000
1!
1\
1]
1F!
1=!
0L
0|
0+
1a
0^
0%!
0U
05
1&!
0t
#110000
0!
0\
0]
#115000
1!
1\
1]
1G!
1<!
0=!
0M
0'!
0,
1^
0(!
0V
03!
0*!
0)!
06
1u
0s
04!
1+!
#120000
0!
0\
0]
#125000
1!
1\
1]
1=!
1A!
1B!
1E!
1D!
1C!
1I
1J
1K
1H
1G
1#!
0.!
0"!
01!
1q
0~
0j
1!!
0p
1&
1'
1*
1)
1(
0a
1_
0^
0,!
0/!
0k
0r
02!
0Y
0Z
0[
0X
0W
0q
1-!
0e
1m
0l
07
08
0;
0:
09
1(!
1,!
1k
10!
0v
1i
0h
0g
1f
1[
1W
1V
1~
13!
1*!
0-!
1e
0m
1l
16
17
1;
1r
0u
1s
1Z
0!!
14!
0+!
1:
12!
0i
1h
1Y
1"!
19
1/!
1g
0f
1X
1)!
18
0,!
00!
1v
0W
03!
1-!
0*!
0e
07
#130000
0!
0\
0]
#135000
1!
1\
1]
1I!
0<!
1;!
0=!
0O
0y
1.!
0.
1^
0}
0"!
0/!
0X
0)!
08
10!
0v
04!
1+!
#140000
0!
0\
0]
#145000
1!
1\
1]
1=!
0A!
0B!
1@!
1F
0H
0G
0#!
1y
0.!
1"!
11!
0$!
1z
1}
0&
0'
1%
1a
0^
1,!
1/!
0(!
0V
1X
1W
1$!
0z
0}
1!!
0{
1'!
0-!
1e
17
18
06
1(!
0/!
02!
1%!
00!
1v
1u
0s
1U
0Y
0X
1V
1{
0'!
15!
1|
0$!
13!
1*!
16
08
09
15
0%!
0,!
1/!
0(!
0u
1s
10!
0v
0g
1f
0&!
1t
0V
1X
0W
0U
05!
0|
1$!
16!
17!
14!
0+!
03!
0*!
1-!
0e
05
07
18
06
1(!
1&!
0t
00!
1v
1u
0s
1V
06!
07!
04!
1+!
1)!
16
0u
1s
#150000
0!
0\
0]
#155000
1!
1\
1]
1<!
0=!
1B!
0C!
0I
1H
0"!
01!
0!!
1p
1'
0(
1^
0/!
12!
1Y
0X
1"!
0~
0)!
14!
0+!
08
19
1,!
02!
1/!
0r
10!
0v
1g
0f
0Z
1X
0Y
1W
04!
1+!
13!
0-!
1*!
1e
1)!
17
09
18
0:
0,!
12!
0g
1f
00!
1v
1i
0h
1Y
0W
14!
0+!
03!
1-!
0*!
0e
07
19
1g
0f
#160000
0!
0\
0]
#165000
1!
1\
1]
1L!
1=!
0R
1o
1j
01
0a
1`
0_
0^
0p
1q
0k
0[
0)!
1m
0l
0;
04!
1+!
#170000
0!
0\
0]
#175000
1!
1\
1]
0<!
1:!
0;!
0=!
0E!
0D!
1C!
1I
0J
0K
0q
1~
0o
0j
1!!
0w
1p
0*
0)
1(
1^
1k
1r
02!
0Y
1Z
1[
0!!
1w
0p
0"!
1x
11!
1)!
0m
1l
1;
1:
09
12!
0k
0/!
0i
1h
0g
1f
0X
0[
1Y
1"!
0x
01!
0y
1.!
1!!
14!
0+!
0)!
1m
0l
19
0;
08
1/!
0r
1,!
02!
1g
0f
10!
0v
0Y
1W
0Z
1X
1y
0.!
0!!
1z
1}
0"!
04!
1+!
13!
0-!
1*!
1e
18
0:
17
09
0,!
12!
00!
1v
1i
0h
0g
1f
1Y
0W
0z
0}
1"!
0{
1'!
1#!
14!
0+!
03!
1-!
0*!
0e
07
19
1g
0f
1{
0'!
0#!
15!
1|
0$!
04!
1+!
05!
0|
1$!
16!
17!
06!
07!
#180000
0!
0\
0]
#185000
1!
1\
1]
1=!
0c
1b
0`
0^
1C
14!
0-!
0m
13
0&!
0v
0s
0i
0g
0d
#190000
0!
0\
0]
#195000
1!
1\
1]
0F!
0I!
0G!
0L!
0:!
0=!
0B!
0@!
0C!
0I
0F
0H
1R
1M
1O
1L
1|
1.!
1'!
1j
1c
11!
1}
1p
1+
1.
1,
11
0'
0%
0(
0b
1^
0/!
0(!
02!
0Y
0V
0X
0C
04!
1-!
1m
03
08
06
09
1%!
1/!
1(!
1k
10!
1&!
1u
1i
1f
1d
12!
1,!
1r
1Z
1W
1Y
1[
1V
1X
1U
13!
1*!
1)!
0m
1l
0-!
1e
15
18
16
1;
19
17
1:
0&!
1t
00!
1v
0u
1s
1g
0f
0i
1h
14!
0+!
#200000
0!
0\
0]
#205000
1!
1\
1]
1F!
1=!
0L
0|
0+
1a
0^
0%!
0U
05
1&!
0t
#210000
0!
0\
0]
#215000
1!
1\
1]
1G!
1<!
0=!
0M
0'!
0,
1^
0(!
0V
03!
0*!
0)!
06
1u
0s
04!
1+!
#220000
0!
0\
0]
#225000
1!
1\
1]
1=!
1A!
1B!
1E!
1D!
1C!
1I
1J
1K
1H
1G
1#!
0.!
0"!
01!
1q
0~
0j
1!!
0p
1&
1'
1*
1)
1(
0a
1_
0^
0,!
0/!
0k
0r
02!
0Y
0Z
0[
0X
0W
0q
1-!
0e
1m
0l
07
08
0;
0:
09
1(!
1,!
1k
10!
0v
1i
0h
0g
1f
1[
1W
1V
1~
13!
1*!
0-!
1e
0m
1l
16
17
1;
1r
0u
1s
1Z
0!!
14!
0+!
1:
12!
0i
1h
1Y
1"!
19
1/!
1g
0f
1X
1)!
18
0,!
00!
1v
0W
03!
1-!
0*!
0e
07
#230000
0!
0\
0]
#235000
1!
1\
1]
1I!
0<!
1;!
0=!
0O
0y
1.!
0.
1^
0}
0"!
0/!
0X
0)!
08
10!
0v
04!
1+!
#240000
0!
0\
0]
#245000
1!
1\
1]
1=!
0A!
0B!
1@!
1F
0H
0G
0#!
1y
0.!
1"!
11!
0$!
1z
1}
0&
0'
1%
1a
0^
1,!
1/!
0(!
0V
1X
1W
1$!
0z
0}
1!!
0{
1'!
0-!
1e
17
18
06
1(!
0/!
02!
1%!
00!
1v
1u
0s
1U
0Y
0X
1V
1{
0'!
15!
1|
0$!
13!
1*!
16
08
09
15
0%!
0,!
1/!
0(!
0u
1s
10!
0v
0g
1f
0&!
1t
0V
1X
0W
0U
05!
0|
1$!
16!
17!
14!
0+!
03!
0*!
1-!
0e
05
07
18
06
1(!
1&!
0t
00!
1v
1u
0s
1V
06!
07!
04!
1+!
1)!
16
0u
1s
#250000
0!
0\
0]
#255000
1!
1\
1]
1<!
0=!
1B!
0C!
0I
1H
0"!
01!
0!!
1p
1'
0(
1^
0/!
12!
1Y
0X
1"!
0~
0)!
14!
0+!
08
19
1,!
02!
1/!
0r
10!
0v
1g
0f
0Z
1X
0Y
1W
04!
1+!
13!
0-!
1*!
1e
1)!
17
09
18
0:
0,!
12!
0g
1f
00!
1v
1i
0h
1Y
0W
14!
0+!
03!
1-!
0*!
0e
07
19
1g
0f
#260000
0!
0\
0]
#265000
1!
1\
1]
1L!
1=!
0R
1o
1j
01
0a
1`
0_
0^
0p
1q
0k
0[
0)!
1m
0l
0;
04!
1+!
#270000
0!
0\
0]
#275000
1!
1\
1]
0<!
1:!
0;!
0=!
0E!
0D!
1C!
1I
0J
0K
0q
1~
0o
0j
1!!
0w
1p
0*
0)
1(
1^
1k
1r
02!
0Y
1Z
1[
0!!
1w
0p
0"!
1x
11!
1)!
0m
1l
1;
1:
09
12!
0k
0/!
0i
1h
0g
1f
0X
0[
1Y
1"!
0x
01!
0y
1.!
1!!
14!
0+!
0)!
1m
0l
19
0;
08
1/!
0r
1,!
02!
1g
0f
10!
0v
0Y
1W
0Z
1X
1y
0.!
0!!
1z
1}
0"!
04!
1+!
13!
0-!
1*!
1e
18
0:
17
09
0,!
12!
00!
1v
1i
0h
0g
1f
1Y
0W
0z
0}
1"!
0{
1'!
1#!
14!
0+!
03!
1-!
0*!
0e
07
19
1g
0f
1{
0'!
0#!
15!
1|
0$!
04!
1+!
05!
0|
1$!
16!
17!
06!
07!
#280000
0!
0\
0]
#285000
1!
1\
1]
1=!
0c
1b
0`
0^
1C
14!
0-!
0m
13
0&!
0v
0s
0i
0g
0d
#290000
0!
0\
0]
#295000
1!
1\
1]
0F!
0I!
0G!
0L!
0:!
0=!
0B!
0@!
0C!
0I
0F
0H
1R
1M
1O
1L
1|
1.!
1'!
1j
1c
11!
1}
1p
1+
1.
1,
11
0'
0%
0(
0b
1^
0/!
0(!
02!
0Y
0V
0X
0C
04!
1-!
1m
03
08
06
09
1%!
1/!
1(!
1k
10!
1&!
1u
1i
1f
1d
12!
1,!
1r
1Z
1W
1Y
1[
1V
1X
1U
13!
1*!
1)!
0m
1l
0-!
1e
15
18
16
1;
19
17
1:
0&!
1t
00!
1v
0u
1s
1g
0f
0i
1h
14!
0+!
#300000
0!
0\
0]
#305000
1!
1\
1]
1F!
1=!
0L
0|
0+
1a
0^
0%!
0U
05
1&!
0t
#310000
0!
0\
0]
#315000
1!
1\
1]
1G!
1<!
0=!
0M
0'!
0,
1^
0(!
0V
03!
0*!
0)!
06
1u
0s
04!
1+!
#320000
0!
0\
0]
#325000
1!
1\
1]
1=!
1A!
1B!
1E!
1D!
1C!
1I
1J
1K
1H
1G
1#!
0.!
0"!
01!
1q
0~
0j
1!!
0p
1&
1'
1*
1)
1(
0a
1_
0^
0,!
0/!
0k
0r
02!
0Y
0Z
0[
0X
0W
0q
1-!
0e
1m
0l
07
08
0;
0:
09
1(!
1,!
1k
10!
0v
1i
0h
0g
1f
1[
1W
1V
1~
13!
1*!
0-!
1e
0m
1l
16
17
1;
1r
0u
1s
1Z
0!!
14!
0+!
1:
12!
0i
1h
1Y
1"!
19
1/!
1g
0f
1X
1)!
18
0,!
00!
1v
0W
03!
1-!
0*!
0e
07
#330000
0!
0\
0]
#335000
1!
1\
1]
1I!
0<!
1;!
0=!
0O
0y
1.!
0.
1^
0}
0"!
0/!
0X
0)!
08
10!
0v
04!
1+!
#340000
0!
0\
0]
#345000
1!
1\
1]
1=!
0A!
0B!
1@!
1F
0H
0G
0#!
1y
0.!
1"!
11!
0$!
1z
1}
0&
0'
1%
1a
0^
1,!
1/!
0(!
0V
1X
1W
1$!
0z
0}
1!!
0{
1'!
0-!
1e
17
18
06
1(!
0/!
02!
1%!
00!
1v
1u
0s
1U
0Y
0X
1V
1{
0'!
15!
1|
0$!
13!
1*!
16
08
09
15
0%!
0,!
1/!
0(!
0u
1s
10!
0v
0g
1f
0&!
1t
0V
1X
0W
0U
05!
0|
1$!
16!
17!
14!
0+!
03!
0*!
1-!
0e
05
07
18
06
1(!
1&!
0t
00!
1v
1u
0s
1V
06!
07!
04!
1+!
1)!
16
0u
1s
#350000
0!
0\
0]
#355000
1!
1\
1]
1<!
0=!
1B!
0C!
0I
1H
0"!
01!
0!!
1p
1'
0(
1^
0/!
12!
1Y
0X
1"!
0~
0)!
14!
0+!
08
19
1,!
02!
1/!
0r
10!
0v
1g
0f
0Z
1X
0Y
1W
04!
1+!
13!
0-!
1*!
1e
1)!
17
09
18
0:
0,!
12!
0g
1f
00!
1v
1i
0h
1Y
0W
14!
0+!
03!
1-!
0*!
0e
07
19
1g
0f
#360000
0!
0\
0]
#365000
1!
1\
1]
1L!
1=!
0R
1o
1j
01
0a
1`
0_
0^
0p
1q
0k
0[
0)!
1m
0l
0;
04!
1+!
#370000
0!
0\
0]
#375000
1!
1\
1]
0<!
1:!
0;!
0=!
0E!
0D!
1C!
1I
0J
0K
0q
1~
0o
0j
1!!
0w
1p
0*
0)
1(
1^
1k
1r
02!
0Y
1Z
1[
0!!
1w
0p
0"!
1x
11!
1)!
0m
1l
1;
1:
09
12!
0k
0/!
0i
1h
0g
1f
0X
0[
1Y
1"!
0x
01!
0y
1.!
1!!
14!
0+!
0)!
1m
0l
19
0;
08
1/!
0r
1,!
02!
1g
0f
10!
0v
0Y
1W
0Z
1X
1y
0.!
0!!
1z
1}
0"!
04!
1+!
13!
0-!
1*!
1e
18
0:
17
09
0,!
12!
00!
1v
1i
0h
0g
1f
1Y
0W
0z
0}
1"!
0{
1'!
1#!
14!
0+!
03!
1-!
0*!
0e
07
19
1g
0f
1{
0'!
0#!
15!
1|
0$!
04!
1+!
05!
0|
1$!
16!
17!
06!
07!
#380000
0!
0\
0]
#385000
1!
1\
1]
1=!
0c
1b
0`
0^
1C
14!
0-!
0m
13
0&!
0v
0s
0i
0g
0d
#390000
0!
0\
0]
#395000
1!
1\
1]
0F!
0I!
0G!
0L!
0:!
0=!
0B!
0@!
0C!
0I
0F
0H
1R
1M
1O
1L
1|
1.!
1'!
1j
1c
11!
1}
1p
1+
1.
1,
11
0'
0%
0(
0b
1^
0/!
0(!
02!
0Y
0V
0X
0C
04!
1-!
1m
03
08
06
09
1%!
1/!
1(!
1k
10!
1&!
1u
1i
1f
1d
12!
1,!
1r
1Z
1W
1Y
1[
1V
1X
1U
13!
1*!
1)!
0m
1l
0-!
1e
15
18
16
1;
19
17
1:
0&!
1t
00!
1v
0u
1s
1g
0f
0i
1h
14!
0+!
#400000
0!
0\
0]
#405000
1!
1\
1]
1F!
1=!
0L
0|
0+
1a
0^
0%!
0U
05
1&!
0t
#410000
0!
0\
0]
#415000
1!
1\
1]
1G!
1<!
0=!
0M
0'!
0,
1^
0(!
0V
03!
0*!
0)!
06
1u
0s
04!
1+!
#420000
0!
0\
0]
#425000
1!
1\
1]
1=!
1A!
1B!
1E!
1D!
1C!
1I
1J
1K
1H
1G
1#!
0.!
0"!
01!
1q
0~
0j
1!!
0p
1&
1'
1*
1)
1(
0a
1_
0^
0,!
0/!
0k
0r
02!
0Y
0Z
0[
0X
0W
0q
1-!
0e
1m
0l
07
08
0;
0:
09
1(!
1,!
1k
10!
0v
1i
0h
0g
1f
1[
1W
1V
1~
13!
1*!
0-!
1e
0m
1l
16
17
1;
1r
0u
1s
1Z
0!!
14!
0+!
1:
12!
0i
1h
1Y
1"!
19
1/!
1g
0f
1X
1)!
18
0,!
00!
1v
0W
03!
1-!
0*!
0e
07
#430000
0!
0\
0]
#435000
1!
1\
1]
1I!
0<!
1;!
0=!
0O
0y
1.!
0.
1^
0}
0"!
0/!
0X
0)!
08
10!
0v
04!
1+!
#440000
0!
0\
0]
#445000
1!
1\
1]
1=!
0A!
0B!
1@!
1F
0H
0G
0#!
1y
0.!
1"!
11!
0$!
1z
1}
0&
0'
1%
1a
0^
1,!
1/!
0(!
0V
1X
1W
1$!
0z
0}
1!!
0{
1'!
0-!
1e
17
18
06
1(!
0/!
02!
1%!
00!
1v
1u
0s
1U
0Y
0X
1V
1{
0'!
15!
1|
0$!
13!
1*!
16
08
09
15
0%!
0,!
1/!
0(!
0u
1s
10!
0v
0g
1f
0&!
1t
0V
1X
0W
0U
05!
0|
1$!
16!
17!
14!
0+!
03!
0*!
1-!
0e
05
07
18
06
1(!
1&!
0t
00!
1v
1u
0s
1V
06!
07!
04!
1+!
1)!
16
0u
1s
#450000
0!
0\
0]
#455000
1!
1\
1]
1<!
0=!
1B!
0C!
0I
1H
0"!
01!
0!!
1p
1'
0(
1^
0/!
12!
1Y
0X
1"!
0~
0)!
14!
0+!
08
19
1,!
02!
1/!
0r
10!
0v
1g
0f
0Z
1X
0Y
1W
04!
1+!
13!
0-!
1*!
1e
1)!
17
09
18
0:
0,!
12!
0g
1f
00!
1v
1i
0h
1Y
0W
14!
0+!
03!
1-!
0*!
0e
07
19
1g
0f
#460000
0!
0\
0]
#465000
1!
1\
1]
1L!
1=!
0R
1o
1j
01
0a
1`
0_
0^
0p
1q
0k
0[
0)!
1m
0l
0;
04!
1+!
#470000
0!
0\
0]
#475000
1!
1\
1]
0<!
1:!
0;!
0=!
0E!
0D!
1C!
1I
0J
0K
0q
1~
0o
0j
1!!
0w
1p
0*
0)
1(
1^
1k
1r
02!
0Y
1Z
1[
0!!
1w
0p
0"!
1x
11!
1)!
0m
1l
1;
1:
09
12!
0k
0/!
0i
1h
0g
1f
0X
0[
1Y
1"!
0x
01!
0y
1.!
1!!
14!
0+!
0)!
1m
0l
19
0;
08
1/!
0r
1,!
02!
1g
0f
10!
0v
0Y
1W
0Z
1X
1y
0.!
0!!
1z
1}
0"!
04!
1+!
13!
0-!
1*!
1e
18
0:
17
09
0,!
12!
00!
1v
1i
0h
0g
1f
1Y
0W
0z
0}
1"!
0{
1'!
1#!
14!
0+!
03!
1-!
0*!
0e
07
19
1g
0f
1{
0'!
0#!
15!
1|
0$!
04!
1+!
05!
0|
1$!
16!
17!
06!
07!
#480000
0!
0\
0]
#485000
1!
1\
1]
1=!
0c
1b
0`
0^
1C
14!
0-!
0m
13
0&!
0v
0s
0i
0g
0d
#490000
0!
0\
0]
#495000
1!
1\
1]
0F!
0I!
0G!
0L!
0:!
0=!
0B!
0@!
0C!
0I
0F
0H
1R
1M
1O
1L
1|
1.!
1'!
1j
1c
11!
1}
1p
1+
1.
1,
11
0'
0%
0(
0b
1^
0/!
0(!
02!
0Y
0V
0X
0C
04!
1-!
1m
03
08
06
09
1%!
1/!
1(!
1k
10!
1&!
1u
1i
1f
1d
12!
1,!
1r
1Z
1W
1Y
1[
1V
1X
1U
13!
1*!
1)!
0m
1l
0-!
1e
15
18
16
1;
19
17
1:
0&!
1t
00!
1v
0u
1s
1g
0f
0i
1h
14!
0+!
#500000
0!
0\
0]
#505000
1!
1\
1]
1F!
1=!
0L
0|
0+
1a
0^
0%!
0U
05
1&!
0t
#510000
0!
0\
0]
#515000
1!
1\
1]
1G!
1<!
0=!
0M
0'!
0,
1^
0(!
0V
03!
0*!
0)!
06
1u
0s
04!
1+!
#520000
0!
0\
0]
#525000
1!
1\
1]
1=!
1A!
1B!
1E!
1D!
1C!
1I
1J
1K
1H
1G
1#!
0.!
0"!
01!
1q
0~
0j
1!!
0p
1&
1'
1*
1)
1(
0a
1_
0^
0,!
0/!
0k
0r
02!
0Y
0Z
0[
0X
0W
0q
1-!
0e
1m
0l
07
08
0;
0:
09
1(!
1,!
1k
10!
0v
1i
0h
0g
1f
1[
1W
1V
1~
13!
1*!
0-!
1e
0m
1l
16
17
1;
1r
0u
1s
1Z
0!!
14!
0+!
1:
12!
0i
1h
1Y
1"!
19
1/!
1g
0f
1X
1)!
18
0,!
00!
1v
0W
03!
1-!
0*!
0e
07
#530000
0!
0\
0]
#535000
1!
1\
1]
1I!
0<!
1;!
0=!
0O
0y
1.!
0.
1^
0}
0"!
0/!
0X
0)!
08
10!
0v
04!
1+!
#540000
0!
0\
0]
#545000
1!
1\
1]
1=!
0A!
0B!
1@!
1F
0H
0G
0#!
1y
0.!
1"!
11!
0$!
1z
1}
0&
0'
1%
1a
0^
1,!
1/!
0(!
0V
1X
1W
1$!
0z
0}
1!!
0{
1'!
0-!
1e
17
18
06
1(!
0/!
02!
1%!
00!
1v
1u
0s
1U
0Y
0X
1V
1{
0'!
15!
1|
0$!
13!
1*!
16
08
09
15
0%!
0,!
1/!
0(!
0u
1s
10!
0v
0g
1f
0&!
1t
0V
1X
0W
0U
05!
0|
1$!
16!
17!
14!
0+!
03!
0*!
1-!
0e
05
07
18
06
1(!
1&!
0t
00!
1v
1u
0s
1V
06!
07!
04!
1+!
1)!
16
0u
1s
#550000
0!
0\
0]
