TP3/EJ2/SAR/simulation/qsim/SAR.msim.vcd
$comment
	File created using the following command:
		vcd file SAR.msim.vcd -direction
$end
$date
	Tue May 28 14:30:16 2019
$end
$version
	ModelSim Version 10.5b
$end
$timescale
	1ps
$end

$scope module main_vlg_vec_tst $end
$var reg 1 ! clk $end
$var reg 1 " cmp $end
$var reg 8 # freq_selector [7:0] $end
$var wire 1 $ clk_out $end
$var wire 1 % eoc $end
$var wire 1 & feedback_out [7] $end
$var wire 1 ' feedback_out [6] $end
$var wire 1 ( feedback_out [5] $end
$var wire 1 ) feedback_out [4] $end
$var wire 1 * feedback_out [3] $end
$var wire 1 + feedback_out [2] $end
$var wire 1 , feedback_out [1] $end
$var wire 1 - feedback_out [0] $end
$var wire 1 . out [7] $end
$var wire 1 / out [6] $end
$var wire 1 0 out [5] $end
$var wire 1 1 out [4] $end
$var wire 1 2 out [3] $end
$var wire 1 3 out [2] $end
$var wire 1 4 out [1] $end
$var wire 1 5 out [0] $end
$var wire 1 6 period [23] $end
$var wire 1 7 period [22] $end
$var wire 1 8 period [21] $end
$var wire 1 9 period [20] $end
$var wire 1 : period [19] $end
$var wire 1 ; period [18] $end
$var wire 1 < period [17] $end
$var wire 1 = period [16] $end
$var wire 1 > period [15] $end
$var wire 1 ? period [14] $end
$var wire 1 @ period [13] $end
$var wire 1 A period [12] $end
$var wire 1 B period [11] $end
$var wire 1 C period [10] $end
$var wire 1 D period [9] $end
$var wire 1 E period [8] $end
$var wire 1 F period [7] $end
$var wire 1 G period [6] $end
$var wire 1 H period [5] $end
$var wire 1 I period [4] $end
$var wire 1 J period [3] $end
$var wire 1 K period [2] $end
$var wire 1 L period [1] $end
$var wire 1 M period [0] $end

$scope module i1 $end
$var wire 1 N gnd $end
$var wire 1 O vcc $end
$var wire 1 P unknown $end
$var tri1 1 Q devclrn $end
$var tri1 1 R devpor $end
$var tri1 1 S devoe $end
$var wire 1 T freq_selector[7]~input_o $end
$var wire 1 U freq_selector[6]~input_o $end
$var wire 1 V freq_selector[5]~input_o $end
$var wire 1 W freq_selector[4]~input_o $end
$var wire 1 X freq_selector[3]~input_o $end
$var wire 1 Y freq_selector[2]~input_o $end
$var wire 1 Z freq_selector[1]~input_o $end
$var wire 1 [ freq_selector[0]~input_o $end
$var wire 1 \ eoc~output_o $end
$var wire 1 ] clk_out~output_o $end
$var wire 1 ^ feedback_out[7]~output_o $end
$var wire 1 _ feedback_out[6]~output_o $end
$var wire 1 ` feedback_out[5]~output_o $end
$var wire 1 a feedback_out[4]~output_o $end
$var wire 1 b feedback_out[3]~output_o $end
$var wire 1 c feedback_out[2]~output_o $end
$var wire 1 d feedback_out[1]~output_o $end
$var wire 1 e feedback_out[0]~output_o $end
$var wire 1 f out[7]~output_o $end
$var wire 1 g out[6]~output_o $end
$var wire 1 h out[5]~output_o $end
$var wire 1 i out[4]~output_o $end
$var wire 1 j out[3]~output_o $end
$var wire 1 k out[2]~output_o $end
$var wire 1 l out[1]~output_o $end
$var wire 1 m out[0]~output_o $end
$var wire 1 n period[23]~output_o $end
$var wire 1 o period[22]~output_o $end
$var wire 1 p period[21]~output_o $end
$var wire 1 q period[20]~output_o $end
$var wire 1 r period[19]~output_o $end
$var wire 1 s period[18]~output_o $end
$var wire 1 t period[17]~output_o $end
$var wire 1 u period[16]~output_o $end
$var wire 1 v period[15]~output_o $end
$var wire 1 w period[14]~output_o $end
$var wire 1 x period[13]~output_o $end
$var wire 1 y period[12]~output_o $end
$var wire 1 z period[11]~output_o $end
$var wire 1 { period[10]~output_o $end
$var wire 1 | period[9]~output_o $end
$var wire 1 } period[8]~output_o $end
$var wire 1 ~ period[7]~output_o $end
$var wire 1 !! period[6]~output_o $end
$var wire 1 "! period[5]~output_o $end
$var wire 1 #! period[4]~output_o $end
$var wire 1 $! period[3]~output_o $end
$var wire 1 %! period[2]~output_o $end
$var wire 1 &! period[1]~output_o $end
$var wire 1 '! period[0]~output_o $end
$var wire 1 (! clk~input_o $end
$var wire 1 )! clk~inputclkctrl_outclk $end
$var wire 1 *! inst4|counter[0]~24_combout $end
$var wire 1 +! inst4|Equal0~0_combout $end
$var wire 1 ,! inst4|Equal0~2_combout $end
$var wire 1 -! inst4|Equal0~3_combout $end
$var wire 1 .! inst4|Equal0~1_combout $end
$var wire 1 /! inst4|Equal0~4_combout $end
$var wire 1 0! inst4|Equal0~11_combout $end
$var wire 1 1! inst4|Equal0~10_combout $end
$var wire 1 2! inst4|counter[22]~69 $end
$var wire 1 3! inst4|counter[23]~70_combout $end
$var wire 1 4! inst4|Equal0~13_combout $end
$var wire 1 5! inst4|Equal0~12_combout $end
$var wire 1 6! inst4|Equal0~14_combout $end
$var wire 1 7! inst4|Equal0~7_combout $end
$var wire 1 8! inst4|Equal0~6_combout $end
$var wire 1 9! inst4|Equal0~8_combout $end
$var wire 1 :! inst4|Equal0~5_combout $end
$var wire 1 ;! inst4|Equal0~9_combout $end
$var wire 1 <! inst4|Equal0~15_combout $end
$var wire 1 =! inst4|counter[0]~25 $end
$var wire 1 >! inst4|counter[1]~26_combout $end
$var wire 1 ?! inst4|counter[1]~27 $end
$var wire 1 @! inst4|counter[2]~28_combout $end
$var wire 1 A! inst4|counter[2]~29 $end
$var wire 1 B! inst4|counter[3]~30_combout $end
$var wire 1 C! inst4|counter[3]~31 $end
$var wire 1 D! inst4|counter[4]~32_combout $end
$var wire 1 E! inst4|counter[4]~33 $end
$var wire 1 F! inst4|counter[5]~34_combout $end
$var wire 1 G! inst4|counter[5]~35 $end
$var wire 1 H! inst4|counter[6]~36_combout $end
$var wire 1 I! inst4|counter[6]~37 $end
$var wire 1 J! inst4|counter[7]~38_combout $end
$var wire 1 K! inst4|counter[7]~39 $end
$var wire 1 L! inst4|counter[8]~40_combout $end
$var wire 1 M! inst4|counter[8]~41 $end
$var wire 1 N! inst4|counter[9]~42_combout $end
$var wire 1 O! inst4|counter[9]~43 $end
$var wire 1 P! inst4|counter[10]~44_combout $end
$var wire 1 Q! inst4|counter[10]~45 $end
$var wire 1 R! inst4|counter[11]~46_combout $end
$var wire 1 S! inst4|counter[11]~47 $end
$var wire 1 T! inst4|counter[12]~48_combout $end
$var wire 1 U! inst4|counter[12]~49 $end
$var wire 1 V! inst4|counter[13]~50_combout $end
$var wire 1 W! inst4|counter[13]~51 $end
$var wire 1 X! inst4|counter[14]~52_combout $end
$var wire 1 Y! inst4|counter[14]~53 $end
$var wire 1 Z! inst4|counter[15]~54_combout $end
$var wire 1 [! inst4|counter[15]~55 $end
$var wire 1 \! inst4|counter[16]~56_combout $end
$var wire 1 ]! inst4|counter[16]~57 $end
$var wire 1 ^! inst4|counter[17]~58_combout $end
$var wire 1 _! inst4|counter[17]~59 $end
$var wire 1 `! inst4|counter[18]~60_combout $end
$var wire 1 a! inst4|counter[18]~61 $end
$var wire 1 b! inst4|counter[19]~62_combout $end
$var wire 1 c! inst4|counter[19]~63 $end
$var wire 1 d! inst4|counter[20]~64_combout $end
$var wire 1 e! inst4|counter[20]~65 $end
$var wire 1 f! inst4|counter[21]~66_combout $end
$var wire 1 g! inst4|counter[21]~67 $end
$var wire 1 h! inst4|counter[22]~68_combout $end
$var wire 1 i! inst4|LessThan0~1_cout $end
$var wire 1 j! inst4|LessThan0~3_cout $end
$var wire 1 k! inst4|LessThan0~5_cout $end
$var wire 1 l! inst4|LessThan0~7_cout $end
$var wire 1 m! inst4|LessThan0~9_cout $end
$var wire 1 n! inst4|LessThan0~11_cout $end
$var wire 1 o! inst4|LessThan0~13_cout $end
$var wire 1 p! inst4|LessThan0~15_cout $end
$var wire 1 q! inst4|LessThan0~17_cout $end
$var wire 1 r! inst4|LessThan0~19_cout $end
$var wire 1 s! inst4|LessThan0~21_cout $end
$var wire 1 t! inst4|LessThan0~23_cout $end
$var wire 1 u! inst4|LessThan0~25_cout $end
$var wire 1 v! inst4|LessThan0~27_cout $end
$var wire 1 w! inst4|LessThan0~29_cout $end
$var wire 1 x! inst4|LessThan0~31_cout $end
$var wire 1 y! inst4|LessThan0~33_cout $end
$var wire 1 z! inst4|LessThan0~35_cout $end
$var wire 1 {! inst4|LessThan0~37_cout $end
$var wire 1 |! inst4|LessThan0~39_cout $end
$var wire 1 }! inst4|LessThan0~41_cout $end
$var wire 1 ~! inst4|LessThan0~43_cout $end
$var wire 1 !" inst4|LessThan0~44_combout $end
$var wire 1 "" inst4|LessThan0~combout $end
$var wire 1 #" inst4|LessThan0~clkctrl_outclk $end
$var wire 1 $" inst|step~0_combout $end
$var wire 1 %" inst|step[0]~feeder_combout $end
$var wire 1 &" inst|step~2_combout $end
$var wire 1 '" inst|step[1]~feeder_combout $end
$var wire 1 (" inst|step~1_combout $end
$var wire 1 )" inst|step~3_combout $end
$var wire 1 *" inst|Equal0~combout $end
$var wire 1 +" inst|LessThan0~0_combout $end
$var wire 1 ," inst|a~0_combout $end
$var wire 1 -" cmp~input_o $end
$var wire 1 ." inst|a[0]~1_combout $end
$var wire 1 /" inst|a[0]~2_combout $end
$var wire 1 0" inst|b~0_combout $end
$var wire 1 1" inst|b[7]~1_combout $end
$var wire 1 2" inst|Add0~14_combout $end
$var wire 1 3" inst|b~2_combout $end
$var wire 1 4" inst|b~3_combout $end
$var wire 1 5" inst|Add0~10_combout $end
$var wire 1 6" inst|b~4_combout $end
$var wire 1 7" inst|b~5_combout $end
$var wire 1 8" inst|Add0~6_combout $end
$var wire 1 9" inst|b~6_combout $end
$var wire 1 :" inst|b~7_combout $end
$var wire 1 ;" inst|a~9_combout $end
$var wire 1 <" inst|Add0~2_combout $end
$var wire 1 =" inst|Add1~0_combout $end
$var wire 1 >" inst|b~8_combout $end
$var wire 1 ?" inst|Add0~1_cout $end
$var wire 1 @" inst|Add0~3 $end
$var wire 1 A" inst|Add0~4_combout $end
$var wire 1 B" inst|Add1~1 $end
$var wire 1 C" inst|Add1~2_combout $end
$var wire 1 D" inst|a~8_combout $end
$var wire 1 E" inst|Add1~3 $end
$var wire 1 F" inst|Add1~4_combout $end
$var wire 1 G" inst|a~7_combout $end
$var wire 1 H" inst|Add0~5 $end
$var wire 1 I" inst|Add0~7 $end
$var wire 1 J" inst|Add0~8_combout $end
$var wire 1 K" inst|Add1~5 $end
$var wire 1 L" inst|Add1~6_combout $end
$var wire 1 M" inst|a~6_combout $end
$var wire 1 N" inst|Add1~7 $end
$var wire 1 O" inst|Add1~8_combout $end
$var wire 1 P" inst|a~5_combout $end
$var wire 1 Q" inst|Add0~9 $end
$var wire 1 R" inst|Add0~11 $end
$var wire 1 S" inst|Add0~12_combout $end
$var wire 1 T" inst|Add1~9 $end
$var wire 1 U" inst|Add1~10_combout $end
$var wire 1 V" inst|a~4_combout $end
$var wire 1 W" inst|Add1~11 $end
$var wire 1 X" inst|Add1~12_combout $end
$var wire 1 Y" inst|a~3_combout $end
$var wire 1 Z" inst|Add0~13 $end
$var wire 1 [" inst|Add0~15 $end
$var wire 1 \" inst|Add0~16_combout $end
$var wire 1 ]" inst|Add1~13 $end
$var wire 1 ^" inst|Add1~14_combout $end
$var wire 1 _" inst|Equal0~clkctrl_outclk $end
$var wire 1 `" inst5|out[5]~feeder_combout $end
$var wire 1 a" inst5|out[4]~feeder_combout $end
$var wire 1 b" inst3|altsyncram_component|auto_generated|q_a [23] $end
$var wire 1 c" inst3|altsyncram_component|auto_generated|q_a [22] $end
$var wire 1 d" inst3|altsyncram_component|auto_generated|q_a [21] $end
$var wire 1 e" inst3|altsyncram_component|auto_generated|q_a [20] $end
$var wire 1 f" inst3|altsyncram_component|auto_generated|q_a [19] $end
$var wire 1 g" inst3|altsyncram_component|auto_generated|q_a [18] $end
$var wire 1 h" inst3|altsyncram_component|auto_generated|q_a [17] $end
$var wire 1 i" inst3|altsyncram_component|auto_generated|q_a [16] $end
$var wire 1 j" inst3|altsyncram_component|auto_generated|q_a [15] $end
$var wire 1 k" inst3|altsyncram_component|auto_generated|q_a [14] $end
$var wire 1 l" inst3|altsyncram_component|auto_generated|q_a [13] $end
$var wire 1 m" inst3|altsyncram_component|auto_generated|q_a [12] $end
$var wire 1 n" inst3|altsyncram_component|auto_generated|q_a [11] $end
$var wire 1 o" inst3|altsyncram_component|auto_generated|q_a [10] $end
$var wire 1 p" inst3|altsyncram_component|auto_generated|q_a [9] $end
$var wire 1 q" inst3|altsyncram_component|auto_generated|q_a [8] $end
$var wire 1 r" inst3|altsyncram_component|auto_generated|q_a [7] $end
$var wire 1 s" inst3|altsyncram_component|auto_generated|q_a [6] $end
$var wire 1 t" inst3|altsyncram_component|auto_generated|q_a [5] $end
$var wire 1 u" inst3|altsyncram_component|auto_generated|q_a [4] $end
$var wire 1 v" inst3|altsyncram_component|auto_generated|q_a [3] $end
$var wire 1 w" inst3|altsyncram_component|auto_generated|q_a [2] $end
$var wire 1 x" inst3|altsyncram_component|auto_generated|q_a [1] $end
$var wire 1 y" inst3|altsyncram_component|auto_generated|q_a [0] $end
$var wire 1 z" inst4|counter [23] $end
$var wire 1 {" inst4|counter [22] $end
$var wire 1 |" inst4|counter [21] $end
$var wire 1 }" inst4|counter [20] $end
$var wire 1 ~" inst4|counter [19] $end
$var wire 1 !# inst4|counter [18] $end
$var wire 1 "# inst4|counter [17] $end
$var wire 1 ## inst4|counter [16] $end
$var wire 1 $# inst4|counter [15] $end
$var wire 1 %# inst4|counter [14] $end
$var wire 1 &# inst4|counter [13] $end
$var wire 1 '# inst4|counter [12] $end
$var wire 1 (# inst4|counter [11] $end
$var wire 1 )# inst4|counter [10] $end
$var wire 1 *# inst4|counter [9] $end
$var wire 1 +# inst4|counter [8] $end
$var wire 1 ,# inst4|counter [7] $end
$var wire 1 -# inst4|counter [6] $end
$var wire 1 .# inst4|counter [5] $end
$var wire 1 /# inst4|counter [4] $end
$var wire 1 0# inst4|counter [3] $end
$var wire 1 1# inst4|counter [2] $end
$var wire 1 2# inst4|counter [1] $end
$var wire 1 3# inst4|counter [0] $end
$var wire 1 4# inst|a [7] $end
$var wire 1 5# inst|a [6] $end
$var wire 1 6# inst|a [5] $end
$var wire 1 7# inst|a [4] $end
$var wire 1 8# inst|a [3] $end
$var wire 1 9# inst|a [2] $end
$var wire 1 :# inst|a [1] $end
$var wire 1 ;# inst|a [0] $end
$var wire 1 <# inst|b [7] $end
$var wire 1 =# inst|b [6] $end
$var wire 1 ># inst|b [5] $end
$var wire 1 ?# inst|b [4] $end
$var wire 1 @# inst|b [3] $end
$var wire 1 A# inst|b [2] $end
$var wire 1 B# inst|b [1] $end
$var wire 1 C# inst|b [0] $end
$var wire 1 D# inst|step [3] $end
$var wire 1 E# inst|step [2] $end
$var wire 1 F# inst|step [1] $end
$var wire 1 G# inst|step [0] $end
$var wire 1 H# inst5|out [7] $end
$var wire 1 I# inst5|out [6] $end
$var wire 1 J# inst5|out [5] $end
$var wire 1 K# inst5|out [4] $end
$var wire 1 L# inst5|out [3] $end
$var wire 1 M# inst5|out [2] $end
$var wire 1 N# inst5|out [1] $end
$var wire 1 O# inst5|out [0] $end
$var wire 1 P# inst3|altsyncram_component|auto_generated|ram_block1a1_PORTADATAOUT_bus [35] $end
$var wire 1 Q# inst3|altsyncram_component|auto_generated|ram_block1a1_PORTADATAOUT_bus [34] $end
$var wire 1 R# inst3|altsyncram_component|auto_generated|ram_block1a1_PORTADATAOUT_bus [33] $end
$var wire 1 S# inst3|altsyncram_component|auto_generated|ram_block1a1_PORTADATAOUT_bus [32] $end
$var wire 1 T# inst3|altsyncram_component|auto_generated|ram_block1a1_PORTADATAOUT_bus [31] $end
$var wire 1 U# inst3|altsyncram_component|auto_generated|ram_block1a1_PORTADATAOUT_bus [30] $end
$var wire 1 V# inst3|altsyncram_component|auto_generated|ram_block1a1_PORTADATAOUT_bus [29] $end
$var wire 1 W# inst3|altsyncram_component|auto_generated|ram_block1a1_PORTADATAOUT_bus [28] $end
$var wire 1 X# inst3|altsyncram_component|auto_generated|ram_block1a1_PORTADATAOUT_bus [27] $end
$var wire 1 Y# inst3|altsyncram_component|auto_generated|ram_block1a1_PORTADATAOUT_bus [26] $end
$var wire 1 Z# inst3|altsyncram_component|auto_generated|ram_block1a1_PORTADATAOUT_bus [25] $end
$var wire 1 [# inst3|altsyncram_component|auto_generated|ram_block1a1_PORTADATAOUT_bus [24] $end
$var wire 1 \# inst3|altsyncram_component|auto_generated|ram_block1a1_PORTADATAOUT_bus [23] $end
$var wire 1 ]# inst3|altsyncram_component|auto_generated|ram_block1a1_PORTADATAOUT_bus [22] $end
$var wire 1 ^# inst3|altsyncram_component|auto_generated|ram_block1a1_PORTADATAOUT_bus [21] $end
$var wire 1 _# inst3|altsyncram_component|auto_generated|ram_block1a1_PORTADATAOUT_bus [20] $end
$var wire 1 `# inst3|altsyncram_component|auto_generated|ram_block1a1_PORTADATAOUT_bus [19] $end
$var wire 1 a# inst3|altsyncram_component|auto_generated|ram_block1a1_PORTADATAOUT_bus [18] $end
$var wire 1 b# inst3|altsyncram_component|auto_generated|ram_block1a1_PORTADATAOUT_bus [17] $end
$var wire 1 c# inst3|altsyncram_component|auto_generated|ram_block1a1_PORTADATAOUT_bus [16] $end
$var wire 1 d# inst3|altsyncram_component|auto_generated|ram_block1a1_PORTADATAOUT_bus [15] $end
$var wire 1 e# inst3|altsyncram_component|auto_generated|ram_block1a1_PORTADATAOUT_bus [14] $end
$var wire 1 f# inst3|altsyncram_component|auto_generated|ram_block1a1_PORTADATAOUT_bus [13] $end
$var wire 1 g# inst3|altsyncram_component|auto_generated|ram_block1a1_PORTADATAOUT_bus [12] $end
$var wire 1 h# inst3|altsyncram_component|auto_generated|ram_block1a1_PORTADATAOUT_bus [11] $end
$var wire 1 i# inst3|altsyncram_component|auto_generated|ram_block1a1_PORTADATAOUT_bus [10] $end
$var wire 1 j# inst3|altsyncram_component|auto_generated|ram_block1a1_PORTADATAOUT_bus [9] $end
$var wire 1 k# inst3|altsyncram_component|auto_generated|ram_block1a1_PORTADATAOUT_bus [8] $end
$var wire 1 l# inst3|altsyncram_component|auto_generated|ram_block1a1_PORTADATAOUT_bus [7] $end
$var wire 1 m# inst3|altsyncram_component|auto_generated|ram_block1a1_PORTADATAOUT_bus [6] $end
$var wire 1 n# inst3|altsyncram_component|auto_generated|ram_block1a1_PORTADATAOUT_bus [5] $end
$var wire 1 o# inst3|altsyncram_component|auto_generated|ram_block1a1_PORTADATAOUT_bus [4] $end
$var wire 1 p# inst3|altsyncram_component|auto_generated|ram_block1a1_PORTADATAOUT_bus [3] $end
$var wire 1 q# inst3|altsyncram_component|auto_generated|ram_block1a1_PORTADATAOUT_bus [2] $end
$var wire 1 r# inst3|altsyncram_component|auto_generated|ram_block1a1_PORTADATAOUT_bus [1] $end
$var wire 1 s# inst3|altsyncram_component|auto_generated|ram_block1a1_PORTADATAOUT_bus [0] $end
$var wire 1 t# inst3|altsyncram_component|auto_generated|ram_block1a0_PORTADATAOUT_bus [17] $end
$var wire 1 u# inst3|altsyncram_component|auto_generated|ram_block1a0_PORTADATAOUT_bus [16] $end
$var wire 1 v# inst3|altsyncram_component|auto_generated|ram_block1a0_PORTADATAOUT_bus [15] $end
$var wire 1 w# inst3|altsyncram_component|auto_generated|ram_block1a0_PORTADATAOUT_bus [14] $end
$var wire 1 x# inst3|altsyncram_component|auto_generated|ram_block1a0_PORTADATAOUT_bus [13] $end
$var wire 1 y# inst3|altsyncram_component|auto_generated|ram_block1a0_PORTADATAOUT_bus [12] $end
$var wire 1 z# inst3|altsyncram_component|auto_generated|ram_block1a0_PORTADATAOUT_bus [11] $end
$var wire 1 {# inst3|altsyncram_component|auto_generated|ram_block1a0_PORTADATAOUT_bus [10] $end
$var wire 1 |# inst3|altsyncram_component|auto_generated|ram_block1a0_PORTADATAOUT_bus [9] $end
$var wire 1 }# inst3|altsyncram_component|auto_generated|ram_block1a0_PORTADATAOUT_bus [8] $end
$var wire 1 ~# inst3|altsyncram_component|auto_generated|ram_block1a0_PORTADATAOUT_bus [7] $end
$var wire 1 !$ inst3|altsyncram_component|auto_generated|ram_block1a0_PORTADATAOUT_bus [6] $end
$var wire 1 "$ inst3|altsyncram_component|auto_generated|ram_block1a0_PORTADATAOUT_bus [5] $end
$var wire 1 #$ inst3|altsyncram_component|auto_generated|ram_block1a0_PORTADATAOUT_bus [4] $end
$var wire 1 $$ inst3|altsyncram_component|auto_generated|ram_block1a0_PORTADATAOUT_bus [3] $end
$var wire 1 %$ inst3|altsyncram_component|auto_generated|ram_block1a0_PORTADATAOUT_bus [2] $end
$var wire 1 &$ inst3|altsyncram_component|auto_generated|ram_block1a0_PORTADATAOUT_bus [1] $end
$var wire 1 '$ inst3|altsyncram_component|auto_generated|ram_block1a0_PORTADATAOUT_bus [0] $end
$upscope $end
$upscope $end
$enddefinitions $end
#0
$dumpvars
0!
0"
bx #
1$
0%
1-
1,
1+
1*
1)
1(
1'
0&
05
04
03
02
01
00
0/
0.
0M
0L
0K
0J
0I
0H
0G
0F
0E
0D
0C
0B
0A
0@
0?
0>
0=
0<
0;
0:
09
08
07
06
0N
1O
xP
1Q
1R
1S
xT
xU
xV
xW
xX
xY
xZ
x[
0\
1]
0^
1_
1`
1a
1b
1c
1d
1e
0f
0g
0h
0i
0j
0k
0l
0m
0n
0o
0p
0q
0r
0s
0t
0u
0v
0w
0x
0y
0z
0{
0|
0}
0~
0!!
0"!
0#!
0$!
0%!
0&!
0'!
0(!
0)!
1*!
1+!
1,!
1-!
1.!
1/!
10!
11!
02!
03!
14!
15!
16!
17!
18!
19!
1:!
1;!
1<!
0=!
0>!
1?!
0@!
0A!
0B!
1C!
0D!
0E!
0F!
1G!
0H!
0I!
0J!
1K!
0L!
0M!
0N!
1O!
0P!
0Q!
0R!
1S!
0T!
0U!
0V!
1W!
0X!
0Y!
0Z!
1[!
0\!
0]!
0^!
1_!
0`!
0a!
0b!
1c!
0d!
0e!
0f!
1g!
0h!
0i!
1j!
0k!
1l!
0m!
1n!
0o!
1p!
0q!
1r!
0s!
1t!
0u!
1v!
0w!
1x!
0y!
1z!
0{!
1|!
0}!
1~!
0!"
1""
1#"
1$"
1%"
0&"
0'"
0("
0)"
0*"
1+"
0,"
0-"
0."
0/"
10"
11"
12"
03"
04"
15"
06"
07"
18"
09"
0:"
1;"
1<"
1="
0>"
1?"
0@"
1A"
0B"
1C"
1D"
1E"
1F"
1G"
1H"
0I"
1J"
0K"
1L"
1M"
1N"
1O"
1P"
1Q"
0R"
1S"
0T"
1U"
1V"
1W"
1X"
1Y"
1Z"
0["
0\"
0]"
0^"
0_"
1`"
1a"
0y"
0x"
0w"
0v"
0u"
0t"
0s"
0r"
0q"
0p"
0o"
0n"
0m"
0l"
0k"
0j"
0i"
0h"
0g"
0f"
0e"
0d"
0c"
0b"
03#
02#
01#
00#
0/#
0.#
0-#
0,#
0+#
0*#
0)#
0(#
0'#
0&#
0%#
0$#
0##
0"#
0!#
0~"
0}"
0|"
0{"
0z"
0;#
0:#
09#
08#
07#
06#
05#
04#
0C#
0B#
0A#
0@#
0?#
0>#
0=#
0<#
0G#
0F#
0E#
0D#
0O#
0N#
0M#
0L#
0K#
0J#
0I#
0H#
0s#
0r#
0q#
0p#
0o#
0n#
0m#
0l#
0k#
0j#
0i#
0h#
0g#
0f#
0e#
0d#
0c#
0b#
0a#
0`#
0_#
0^#
0]#
0\#
0[#
0Z#
0Y#
0X#
0W#
0V#
0U#
0T#
0S#
0R#
0Q#
0P#
0'$
0&$
0%$
0$$
0#$
0"$
0!$
0~#
0}#
0|#
0{#
0z#
0y#
0x#
0w#
0v#
0u#
0t#
$end
#5000
1!
1(!
1)!
#10000
0!
0(!
0)!
#15000
1!
1(!
1)!
1s#
1q#
1x"
1v"
1$!
1&!
1i!
0+!
1k!
0.!
1L
1J
0j!
0/!
0l!
0<!
1m!
0n!
1o!
0p!
1q!
0r!
1s!
0t!
1u!
0v!
1w!
0x!
1y!
0z!
1{!
0|!
1}!
0~!
1!"
0""
0#"
0]
0$
#20000
1"
0!
1-"
0(!
0)!
01"
1."
1/"
#25000
1!
1(!
1)!
13#
0i!
1=!
0*!
1j!
1>!
#30000
0!
0(!
0)!
#35000
1!
1(!
1)!
12#
03#
0?!
0>!
1+!
1i!
0=!
1*!
1?!
1>!
1@!
0@!
#40000
0!
0(!
0)!
#45000
1!
1(!
1)!
13#
0i!
0+!
1=!
0*!
0?!
0>!
1@!
#50000
0!
0(!
0)!
#55000
1!
1(!
1)!
11#
02#
03#
0k!
1A!
1?!
1>!
1i!
0=!
1*!
0@!
1l!
0A!
0j!
0>!
1B!
1@!
0m!
1k!
0B!
1n!
0l!
0o!
1m!
1p!
0n!
0q!
1o!
1r!
0p!
0s!
1q!
1t!
0r!
0u!
1s!
1v!
0t!
0w!
1u!
1x!
0v!
0y!
1w!
1z!
0x!
0{!
1y!
1|!
0z!
0}!
1{!
1~!
0|!
0!"
1}!
0~!
1""
1#"
1]
1!"
1$
0""
0#"
0]
0$
15#
16#
17#
18#
19#
1:#
1;#
1G#
1]"
0S"
0W"
05"
1T"
0J"
0N"
08"
1K"
0A"
0E"
0<"
1B"
1&"
0$"
0X"
0U"
0O"
0L"
0F"
0C"
0="
0e
0d
0c
0b
0a
0`
0_
0B"
19"
1:"
0'
0(
0)
0*
0+
0,
0-
1^"
1X"
1="
1'"
0%"
0Y"
13"
0`"
0V"
14"
0a"
0P"
16"
0M"
17"
0G"
0D"
1>"
0;"
1e
1_
1^
1E"
1&
1'
1-
1C"
00"
1,"
1Y"
03"
0>"
1;"
1d
0K"
0:"
1,
1F"
1D"
1c
1N"
09"
1+
1L"
1G"
1b
0T"
1*
1O"
1M"
07"
1a
1W"
1)
1U"
1a"
1P"
06"
1`
1(
0X"
1`"
1V"
04"
0_
0'
0Y"
13"
#60000
0"
0!
0-"
0(!
0)!
11"
0."
0/"
#65000
1!
1(!
1)!
13#
0i!
1=!
0*!
1j!
1>!
0k!
1l!
0m!
1n!
0o!
1p!
0q!
1r!
0s!
1t!
0u!
1v!
0w!
1x!
0y!
1z!
0{!
1|!
0}!
1~!
0!"
1""
1#"
1]
1$
1F#
1=#
0G#
1$"
0Z"
1S"
02"
0W"
1%"
0U"
0`
0(
0`"
0V"
14"
#70000
0!
0(!
0)!
#75000
1!
1(!
1)!
12#
03#
0?!
0>!
1+!
1i!
0=!
1*!
1A!
1?!
1>!
0@!
0A!
1B!
1@!
0B!
#80000
0!
0(!
0)!
#85000
1!
1(!
1)!
13#
0i!
0+!
1=!
0*!
0?!
0>!
1A!
0@!
1B!
#90000
0!
0(!
0)!
#95000
1!
1(!
1)!
10#
01#
02#
03#
0C!
1.!
1k!
0A!
1?!
1>!
1i!
0=!
1*!
0B!
1@!
1C!
0j!
0>!
1D!
1B!
0@!
0D!
#100000
0!
0(!
0)!
#105000
1!
1(!
1)!
13#
0i!
1=!
0*!
1j!
1>!
#110000
0!
0(!
0)!
#115000
1!
1(!
1)!
12#
03#
0?!
0>!
1+!
1i!
0=!
1*!
1/!
1?!
1>!
1@!
1<!
0@!
#120000
0!
0(!
0)!
#125000
1!
1(!
1)!
00#
02#
0l!
0.!
0j!
0>!
0+!
0B!
1m!
0/!
0n!
0<!
1o!
0p!
1q!
0r!
1s!
0t!
1u!
0v!
1w!
0x!
1y!
0z!
1{!
0|!
1}!
0~!
1!"
0""
0#"
0]
0$
#130000
0!
0(!
0)!
#135000
1!
1(!
1)!
13#
0i!
1=!
0*!
1j!
1>!
#140000
0!
0(!
0)!
#145000
1!
1(!
1)!
12#
03#
0?!
0>!
1+!
1i!
0=!
1*!
1?!
1>!
1@!
0@!
#150000
0!
0(!
0)!
#155000
1!
1(!
1)!
13#
0i!
0+!
1=!
0*!
0?!
0>!
1@!
#160000
0!
0(!
0)!
#165000
1!
1(!
1)!
11#
02#
03#
0k!
1A!
1?!
1>!
1i!
0=!
1*!
0@!
1l!
0A!
0j!
0>!
1B!
1@!
0m!
1k!
0B!
1n!
0l!
0o!
1m!
1p!
0n!
0q!
1o!
1r!
0p!
0s!
1q!
1t!
0r!
0u!
1s!
1v!
0t!
0w!
1u!
1x!
0v!
0y!
1w!
1z!
0x!
0{!
1y!
1|!
0z!
0}!
1{!
1~!
0|!
0!"
1}!
0~!
1""
1#"
1]
1!"
1$
0""
0#"
0]
0$
1>#
1G#
1R"
15"
1)"
0&"
0$"
0S"
1T"
0O"
0'"
0%"
0a
0)
0a"
0P"
16"
#170000
0!
0(!
0)!
#175000
1!
1(!
1)!
13#
0i!
1=!
0*!
1j!
1>!
0k!
1l!
0m!
1n!
0o!
1p!
0q!
1r!
0s!
1t!
0u!
1v!
0w!
1x!
0y!
1z!
0{!
1|!
0}!
1~!
0!"
1""
1#"
1]
1$
1E#
0F#
1?#
0G#
1$"
0Q"
1J"
05"
0N"
1%"
0L"
0b
0*
0M"
17"
#180000
0!
0(!
0)!
#185000
1!
1(!
1)!
12#
03#
0?!
0>!
1+!
1i!
0=!
1*!
1A!
1?!
1>!
0@!
0A!
1B!
1@!
0B!
#190000
0!
0(!
0)!
#195000
1!
1(!
1)!
13#
0i!
0+!
1=!
0*!
0?!
0>!
1A!
0@!
1B!
#200000
0!
0(!
0)!
#205000
1!
1(!
1)!
10#
01#
02#
03#
0C!
1.!
1k!
0A!
1?!
1>!
1i!
0=!
1*!
0B!
1@!
1C!
0j!
0>!
1D!
1B!
0@!
0D!
#210000
0!
0(!
0)!
#215000
1!
1(!
1)!
13#
0i!
1=!
0*!
1j!
1>!
#220000
0!
0(!
0)!
#225000
1!
1(!
1)!
12#
03#
0?!
0>!
1+!
1i!
0=!
1*!
1/!
1?!
1>!
1@!
1<!
0@!
#230000
0!
0(!
0)!
